        Model GDT_TS LDDT CAD_AA X2Djury
 T0895TS001_1  50.42 0.43   0.47  627.57
 T0895TS004_1  72.08 0.59   0.54  740.45
 T0895TS005_1  70.62 0.62   0.60  714.60
 T0895TS011_1  72.50 0.63   0.62  736.75
 T0895TS016_1  64.17 0.53   0.53  650.79
 T0895TS017_1  71.67 0.61   0.59  737.57
 T0895TS019_1  70.21 0.57   0.61  746.62
 T0895TS023_1  72.29 0.62   0.61  724.64
 T0895TS026_1  18.33 0.25   0.41  529.32
 T0895TS028_1  20.83 0.25   0.38  495.29
 T0895TS040_1  21.67 0.26   0.43  511.09
 T0895TS046_1  20.42 0.06   0.39  457.12
 T0895TS048_1  66.04 0.55   0.56  725.07
 T0895TS060_1  64.79 0.55   0.58  687.85
 T0895TS064_1  71.04 0.65   0.62  730.86
 T0895TS066_1  16.04 0.21   0.37  501.78
 T0895TS067_1  72.08 0.66   0.66  711.00
 T0895TS073_1  68.96 0.62   0.61  735.17
 T0895TS077_1  27.08 0.28   0.41  527.83
 T0895TS079_1  70.83 0.60   0.58  741.71
 T0895TS083_1  27.29 0.33   0.45  549.05
 T0895TS089_1  16.04 0.21   0.37  501.78
 T0895TS092_1  66.04 0.55   0.56  725.07
 T0895TS095_1  16.04 0.21   0.37  501.78
 T0895TS101_1  64.38 0.52   0.54  710.63
 T0895TS102_1  72.08 0.63   0.64  707.65
 T0895TS114_1  72.08 0.66   0.66  711.00
 T0895TS119_1  70.83 0.60   0.58  715.95
 T0895TS126_1  27.71 0.33   0.46  569.25
 T0895TS162_1  21.25 0.30   0.42  560.39
 T0895TS166_1  64.58 0.53   0.52  620.97
 T0895TS171_1  19.17 0.17   0.42  503.61
 T0895TS173_1  69.38 0.35   0.59  715.11
 T0895TS179_1  71.88 0.57   0.61  728.52
 T0895TS180_1  65.83 0.48   0.56  709.52
 T0895TS182_1  27.71 0.20   0.39  587.05
 T0895TS183_1  70.83 0.60   0.58  741.71
 T0895TS188_1  25.62 0.27   0.41  548.79
 T0895TS203_1  67.71 0.54   0.56  747.31
 T0895TS207_1  56.25 0.46   0.48  659.90
 T0895TS213_1  16.04 0.21   0.37  501.78
 T0895TS220_1  72.92 0.63   0.63  708.81
 T0895TS230_1  37.71 0.36   0.45  573.96
 T0895TS232_1  70.83 0.60   0.58  741.71
 T0895TS236_1  69.58 0.61   0.60  734.72
 T0895TS239_1  71.25 0.60   0.59  732.60
 T0895TS243_1  74.17 0.65   0.65  725.41
 T0895TS247_1  68.12 0.63   0.63  719.14
 T0895TS250_1  72.29 0.62   0.60  743.55
 T0895TS251_1  70.62 0.61   0.57  740.01
 T0895TS252_1  67.08 0.62   0.60  720.61
 T0895TS258_1  71.88 0.60   0.57  729.35
 T0895TS264_1  28.75 0.30   0.41  516.15
 T0895TS270_1  16.04 0.21   0.37  501.78
 T0895TS275_1  62.71 0.52   0.54  664.90
 T0895TS282_1  29.17 0.34   0.46  600.04
 T0895TS287_1  71.25 0.61   0.60  735.75
 T0895TS302_1  16.04 0.21   0.37  501.78
 T0895TS303_1  67.92 0.60   0.58  733.50
 T0895TS313_1  72.71 0.61   0.59  725.12
 T0895TS320_1  71.67 0.61   0.59  737.60
 T0895TS321_1  27.29 0.26   0.44  512.70
 T0895TS322_1  25.21 0.34   0.46  566.83
 T0895TS324_1  71.25 0.62   0.59  733.66
 T0895TS325_1  70.42 0.63   0.61  717.95
 T0895TS330_1  21.04 0.28   0.42  521.62
 T0895TS342_1  66.04 0.55   0.56  725.07
 T0895TS345_1  67.92 0.56   0.57  731.17
 T0895TS349_1  70.83 0.60   0.60  721.95
 T0895TS356_1  65.21 0.56   0.55  711.55
 T0895TS357_1  20.42 0.25   0.36  508.59
 T0895TS359_1  65.00 0.53   0.52  660.86
 T0895TS363_1  72.08 0.63   0.64  707.65
 T0895TS380_1  18.33 0.25   0.41  529.32
 T0895TS382_1  21.46 0.24   0.36  509.13
 T0895TS384_1  71.04 0.64   0.65  716.53
 T0895TS393_1  71.67 0.61   0.59  747.71
 T0895TS396_1  70.83 0.60   0.58  737.78
 T0895TS399_1  25.21 0.14   0.45  562.29
 T0895TS405_1  67.71 0.54   0.56  747.31
 T0895TS407_1  59.38 0.47   0.51  666.16
 T0895TS411_1  68.33 0.61   0.61  735.18
 T0895TS417_1  70.21 0.63   0.66  702.98
 T0895TS420_1  72.08 0.61   0.58  731.70
 T0895TS421_1  23.12 0.14   0.36  489.39
 T0895TS425_1  24.79 0.27   0.40  508.45
 T0895TS432_1  34.58 0.40   0.51  627.42
 T0895TS434_1  40.00 0.35   0.47  607.12
 T0895TS436_1  20.21 0.30   0.42  537.51
 T0895TS439_1  71.04 0.59   0.63  734.16
 T0895TS441_1  70.62 0.36   0.59  718.14
 T0895TS443_1  61.67 0.45   0.52  684.51
 T0895TS444_1  69.38 0.59   0.59  742.67
 T0895TS446_1  68.12 0.58   0.58  714.95
 T0895TS450_1  73.33 0.65   0.63  723.52
 T0895TS451_1  32.71 0.34   0.46  554.49
 T0895TS452_1  71.46 0.56   0.56  731.35
 T0895TS455_1  14.17 0.19   0.31  444.05
 T0895TS456_1  66.04 0.59   0.58  705.86
 T0895TS464_1  63.33 0.51   0.50  656.35
 T0895TS467_1  17.92 0.26   0.40  517.72
 T0895TS474_1  63.12 0.48   0.52  669.34
 T0895TS475_1  66.67 0.58   0.58  695.88
 T0895TS479_1  72.08 0.61   0.58  731.70
 T0895TS480_1  63.96 0.55   0.54  685.36
 T0895TS483_1  24.79 0.30   0.42  560.10
 T0895TS486_1  70.83 0.60   0.58  741.71
 T0895TS489_1  20.42 0.10   0.40  574.95
 T0895TS495_1  72.29 0.62   0.60  742.99
 T0895TS498_1  71.04 0.62   0.59  743.13
