        Model GDT_TS LDDT CAD_AA X2Djury
 T0873TS005_1  82.52 0.76   0.73 3749.76
 T0873TS016_1  55.74 0.52   0.56 3198.59
 T0873TS026_1  73.75 0.69   0.67 3810.66
 T0873TS028_1  75.97 0.73   0.69 3759.63
 T0873TS048_1  74.41 0.71   0.69 3779.17
 T0873TS077_1  78.95 0.74   0.69 3814.22
 T0873TS092_1  74.41 0.71   0.69 3779.17
 T0873TS119_1  76.84 0.68   0.70 3811.00
 T0873TS166_1  73.16 0.70   0.68 3825.17
 T0873TS180_1  71.59 0.48   0.63 3685.10
 T0873TS183_1  76.79 0.72   0.69 3819.02
 T0873TS220_1  78.41 0.74   0.71 3638.61
 T0873TS236_1  78.46 0.74   0.71 3854.22
 T0873TS250_1  77.87 0.75   0.71 3805.76
 T0873TS251_1  80.95 0.75   0.72 3759.56
 T0873TS258_1  76.68 0.69   0.65 3772.49
 T0873TS275_1  77.38 0.74   0.71 3798.02
 T0873TS287_1  78.90 0.73   0.71 3845.10
 T0873TS313_1  77.22 0.74   0.71 3798.78
 T0873TS321_1   6.22 0.16   0.37 1844.71
 T0873TS345_1  75.81 0.69   0.68 3766.95
 T0873TS349_1  76.84 0.71   0.70 3819.24
 T0873TS357_1  61.42 0.55   0.52 3362.51
 T0873TS359_1  75.27 0.69   0.68 3767.76
 T0873TS380_1  73.75 0.69   0.67 3810.66
 T0873TS382_1  76.79 0.73   0.69 3788.41
 T0873TS405_1  78.14 0.74   0.70 3864.61
 T0873TS407_1  77.92 0.72   0.69 3741.46
 T0873TS421_1  76.62 0.43   0.63 3728.05
 T0873TS425_1  79.11 0.73   0.68 3784.76
 T0873TS432_1  12.93 0.24   0.41 2160.20
 T0873TS434_1   5.84 0.17   0.39 1943.73
 T0873TS444_1  73.05 0.70   0.67 3806.80
 T0873TS446_1  76.30 0.73   0.70 3716.59
 T0873TS451_1  11.09 0.27   0.42 2334.29
 T0873TS452_1  73.21 0.69   0.67 3835.66
 T0873TS455_1  52.49 0.50   0.54 3123.61
 T0873TS464_1  77.92 0.73   0.68 3779.68
 T0873TS467_1  66.40 0.68   0.67 3728.68
 T0873TS479_1  77.38 0.71   0.69 3825.51
 T0873TS495_1  79.76 0.75   0.71 3769.80
