        Model GDT_TS LDDT CAD_AA X2Djury
 T0866TS001_1  20.87 0.27   0.40  656.52
 T0866TS004_1  42.17 0.44   0.49  794.31
 T0866TS005_1  71.30 0.69   0.67  822.32
 T0866TS011_1  55.65 0.57   0.60  778.73
 T0866TS016_1  17.17 0.18   0.37  621.38
 T0866TS017_1  41.30 0.41   0.51  791.15
 T0866TS019_1  13.91 0.17   0.37  581.68
 T0866TS022_1  12.17 0.08   0.35  653.78
 T0866TS023_1  41.09 0.43   0.55  764.95
 T0866TS026_1  17.83 0.23   0.40  682.46
 T0866TS028_1  17.17 0.22   0.38  517.55
 T0866TS040_1  16.30 0.25   0.38  608.76
 T0866TS042_1  72.83 0.70   0.68  829.27
 T0866TS048_1  41.09 0.37   0.48  735.92
 T0866TS060_1  64.35 0.61   0.60  807.15
 T0866TS064_1  61.52 0.52   0.52  740.88
 T0866TS066_1  36.52 0.39   0.53  797.55
 T0866TS067_1  37.17 0.39   0.53  796.55
 T0866TS073_1  46.09 0.44   0.51  781.05
 T0866TS077_1  18.04 0.23   0.41  628.80
 T0866TS079_1  55.65 0.52   0.56  837.11
 T0866TS083_1  33.48 0.39   0.50  595.01
 T0866TS089_1  42.17 0.44   0.53  798.61
 T0866TS092_1  41.09 0.37   0.48  735.92
 T0866TS095_1  48.26 0.49   0.53  787.49
 T0866TS101_1  18.26 0.23   0.37  649.44
 T0866TS102_1  40.44 0.44   0.51  839.30
 T0866TS114_1  36.30 0.39   0.53  798.80
 T0866TS119_1  26.30 0.29   0.43  680.57
 T0866TS126_1  38.91 0.44   0.55  630.44
 T0866TS145_1  15.44 0.21   0.39  687.56
 T0866TS162_1  22.17 0.27   0.40  669.05
 T0866TS171_1  15.44 0.19   0.36  572.83
 T0866TS173_1  72.83 0.52   0.66  691.85
 T0866TS179_1  24.35 0.31   0.49  720.13
 T0866TS180_1  49.56 0.39   0.50  678.30
 T0866TS182_1  26.09 0.29   0.42  711.79
 T0866TS183_1  41.74 0.43   0.51  804.25
 T0866TS188_1  20.00 0.21   0.39  601.58
 T0866TS192_1  16.96 0.22   0.36  634.14
 T0866TS203_1  48.48 0.49   0.53  786.98
 T0866TS207_1  12.61 0.17   0.37  629.41
 T0866TS213_1  72.83 0.70   0.68  829.08
 T0866TS220_1  22.83 0.31   0.46  669.38
 T0866TS230_1  13.26 0.19   0.31  569.55
 T0866TS232_1  43.04 0.45   0.51  818.46
 T0866TS236_1  42.61 0.40   0.52  739.28
 T0866TS239_1  72.83 0.68   0.67  815.69
 T0866TS243_1  45.00 0.45   0.55  820.09
 T0866TS247_1  71.30 0.69   0.67  822.32
 T0866TS250_1  41.74 0.43   0.54  728.47
 T0866TS251_1  13.91 0.25   0.38  627.84
 T0866TS252_1  73.48 0.71   0.69  687.05
 T0866TS258_1  21.30 0.25   0.39  544.05
 T0866TS264_1  18.04 0.23   0.40  611.09
 T0866TS270_1  48.26 0.49   0.53  787.49
 T0866TS275_1  20.00 0.18   0.36  534.87
 T0866TS282_1  20.00 0.29   0.47  687.00
 T0866TS287_1  39.56 0.39   0.51  790.71
 T0866TS300_1  28.26 0.32   0.44  697.45
 T0866TS302_1  48.26 0.49   0.53  787.49
 T0866TS313_1  27.17 0.29   0.43  680.09
 T0866TS320_1  40.44 0.43   0.51  837.65
 T0866TS321_1  17.17 0.24   0.40  610.13
 T0866TS324_1  40.65 0.44   0.50  846.55
 T0866TS325_1  73.70 0.70   0.67  696.21
 T0866TS342_1  41.09 0.37   0.48  735.92
 T0866TS345_1  23.48 0.27   0.41  660.86
 T0866TS349_1  26.30 0.26   0.41  688.59
 T0866TS356_1  14.35 0.20   0.36  455.25
 T0866TS357_1  32.39 0.26   0.35  566.05
 T0866TS359_1  17.39 0.23   0.39  557.79
 T0866TS363_1  36.74 0.40   0.55  796.83
 T0866TS367_1  22.17 0.25   0.41  491.96
 T0866TS380_1  17.83 0.23   0.40  682.46
 T0866TS382_1  36.96 0.38   0.55  798.74
 T0866TS384_1  41.52 0.44   0.53  829.17
 T0866TS393_1  71.52 0.69   0.67  825.05
 T0866TS396_1  43.26 0.45   0.51  809.41
 T0866TS399_1  12.83 0.15   0.36  604.21
 T0866TS405_1  20.00 0.25   0.40  713.65
 T0866TS407_1  32.39 0.33   0.47  688.93
 T0866TS411_1  45.22 0.45   0.51  781.92
 T0866TS417_1  71.30 0.69   0.67  822.32
 T0866TS420_1  24.35 0.25   0.40  641.15
 T0866TS421_1  16.09 0.05   0.20  342.35
 T0866TS425_1  17.61 0.23   0.40  647.29
 T0866TS432_1  45.44 0.46   0.56  746.51
 T0866TS434_1  16.74 0.22   0.41  614.26
 T0866TS436_1  20.87 0.27   0.42  530.85
 T0866TS439_1  40.87 0.43   0.51  849.55
 T0866TS441_1  72.17 0.51   0.68  679.84
 T0866TS443_1  72.17 0.69   0.68  772.22
 T0866TS444_1  40.65 0.38   0.50  735.69
 T0866TS446_1  14.78 0.23   0.40  621.47
 T0866TS450_1  69.56 0.66   0.65  767.12
 T0866TS451_1  37.61 0.43   0.50  672.00
 T0866TS452_1  26.30 0.25   0.43  723.70
 T0866TS455_1  13.48 0.20   0.34  597.10
 T0866TS456_1  73.26 0.69   0.68  770.47
 T0866TS464_1  38.48 0.31   0.43  597.08
 T0866TS467_1  19.13 0.24   0.41  630.76
 T0866TS474_1  50.22 0.32   0.40  369.36
 T0866TS475_1  73.48 0.71   0.69  691.69
 T0866TS479_1  43.04 0.45   0.51  818.46
 T0866TS480_1  13.91 0.20   0.37  510.17
 T0866TS483_1  14.78 0.21   0.41  669.23
 T0866TS486_1  43.04 0.45   0.51  818.46
 T0866TS489_1  20.87 0.09   0.37  637.93
 T0866TS498_1  40.44 0.44   0.51  839.30
