          Model GDT_TS LDDT CAD_AA X2Djury
   T0930TS001_1   9.02 0.33   0.52 2751.83
   T0930TS011_1   7.22 0.33   0.52 3013.58
   T0930TS016_1   6.14 0.21   0.47 2617.12
   T0930TS017_1   9.54 0.32   0.52 2494.35
   T0930TS019_1   5.16 0.27   0.50 2754.82
   T0930TS022_1   3.91 0.09   0.40 2684.18
   T0930TS023_1   6.01 0.25   0.44 2491.91
   T0930TS026_1   7.43 0.29   0.47 2669.56
   T0930TS042_1   5.24 0.23   0.43 2569.99
   T0930TS046_1   5.16 0.07   0.44 2305.84
   T0930TS066_1   5.63 0.28   0.49 2631.69
   T0930TS067_1   6.62 0.33   0.53 3001.91
   T0930TS073_1   6.62 0.33   0.53 2762.91
   T0930TS077_1   7.39 0.29   0.47 2769.94
   T0930TS079_1   7.17 0.26   0.44    0.91
   T0930TS089_1   4.72 0.18   0.34 1989.73
   T0930TS092_1   6.62 0.31   0.52 2793.55
   T0930TS095_1   5.63 0.28   0.49 2631.69
   T0930TS102_1   6.62 0.33   0.53 3001.91
   T0930TS114_1   7.22 0.33   0.52 3013.58
   T0930TS119_1   4.51 0.18   0.34 2141.88
   T0930TS166_1   6.66 0.16   0.26 1351.03
   T0930TS171_1   5.46 0.21   0.40 2286.57
   T0930TS180_1   5.33 0.22   0.48 2794.75
   T0930TS188_1   6.83 0.22   0.39 1928.01
   T0930TS192_1   4.72 0.25   0.45 2622.83
   T0930TS203_1   6.62 0.33   0.53 3001.91
   T0930TS213_1   5.63 0.28   0.49 2631.69
   T0930TS220_1   7.22 0.33   0.52 3013.58
   T0930TS236_1   7.04 0.28   0.49 2742.16
   T0930TS239_1   7.22 0.33   0.52 3013.58
   T0930TS243_1   5.76 0.30   0.52 2924.43
   T0930TS250_1   7.26 0.27   0.47 2660.10
   T0930TS258_1   5.03 0.26   0.46 2732.92
   T0930TS270_1   5.63 0.28   0.49 2631.69
   T0930TS275_1   4.60 0.13   0.33 1671.74
   T0930TS287_1   7.04 0.28   0.49 2742.16
   T0930TS295_1   6.31 0.25   0.48 2669.16
   T0930TS302_1   5.63 0.28   0.49 2631.69
   T0930TS303_1   7.04 0.33   0.52 2799.91
   T0930TS313_1   4.51 0.18   0.35 2106.43
   T0930TS321_1   6.83 0.25   0.51 2631.06
   T0930TS324_1   5.80 0.29   0.51 2893.36
 T0930TS325_1_1   5.80 0.08   0.13  694.43
 T0930TS325_2_1   5.80 0.08   0.12  680.30
 T0930TS325_3_1   5.07 0.08   0.12  658.62
 T0930TS325_4_1   5.33 0.08   0.12  681.08
 T0930TS325_5_1   5.33 0.08   0.12  681.08
   T0930TS345_1   6.57 0.26   0.47 2536.00
   T0930TS349_1   4.51 0.17   0.34 2131.77
   T0930TS356_1   7.34 0.31   0.50 2865.38
   T0930TS357_1   3.48 0.10   0.29 1313.78
   T0930TS359_1   4.08 0.11   0.23 1303.06
   T0930TS363_1   6.62 0.33   0.53 3001.91
   T0930TS380_1   7.43 0.29   0.47 2669.56
   T0930TS382_1   5.80 0.26   0.42 2750.58
   T0930TS384_1   6.01 0.30   0.52 2880.04
   T0930TS396_1   7.17 0.27   0.47 2496.04
   T0930TS399_1   5.11 0.09   0.44 2662.75
   T0930TS405_1   5.88 0.28   0.48 2802.69
   T0930TS407_1   6.10 0.27   0.49 2527.77
   T0930TS420_1   6.62 0.33   0.53 3001.91
   T0930TS421_1   5.84 0.08   0.39 2418.97
   T0930TS425_1   7.34 0.29   0.47 2778.61
   T0930TS434_1   6.96 0.27   0.50 2570.64
   T0930TS439_1   7.22 0.33   0.52 3073.36
   T0930TS444_1   6.19 0.29   0.51 2786.70
   T0930TS446_1   6.49 0.28   0.49 2692.30
   T0930TS450_1   9.41 0.34   0.51 2784.66
   T0930TS451_1   7.60 0.34   0.52 2613.01
   T0930TS464_1   6.01 0.24   0.42 2288.38
   T0930TS467_1   6.44 0.28   0.51 2628.87
   T0930TS480_1   6.57 0.23   0.42 2394.09
   T0930TS483_1   6.57 0.28   0.50 2629.19
   T0930TS489_1   7.43 0.19   0.48 2683.78
   T0930TS495_1   7.30 0.27   0.47 2573.14
   T0930TS498_1   6.40 0.11   0.36 1975.83
