Koreliacijos koeficientai:

2Djury vs GDT_TS
pearson 0.340921078457934
spearman 0.425008616532515 

2Djury vs LDDT
pearson 0.716277181347613
spearman 0.804431196313032 

2Djury vs CAD_AA
pearson 0.878267039286597
spearman 0.824563005705577 

