Koreliacijos koeficientai:

2Djury vs GDT_TS
pearson 0.614911333907903
spearman 0.601608034860782 

2Djury vs LDDT
pearson 0.703339232118582
spearman 0.794158963189266 

2Djury vs CAD_AA
pearson 0.773505611676272
spearman 0.801047414180511 

