Model         2Djury
T0909TS001_1  1687.36
T0909TS004_1  1820.53
T0909TS005_1  1686.91
T0909TS011_1  1803.03
T0909TS016_1  1691.92
T0909TS017_1  1690.88
T0909TS019_1  1637.89
T0909TS022_1  1185.78
T0909TS023_1  1719.85
T0909TS026_1  1238.94
T0909TS028_1  463.90
T0909TS040_1  1077.50
T0909TS042_1  1685.78
T0909TS046_1  949.64
T0909TS048_1  1795.16
T0909TS060_1  1654.40
T0909TS064_1  1720.71
T0909TS066_1  1235.15
T0909TS067_1  1686.91
T0909TS073_1  1757.27
T0909TS077_1  1728.44
T0909TS079_1  1622.88
T0909TS089_1  1235.15
T0909TS092_1  1795.16
T0909TS095_1  1235.15
T0909TS101_1  1499.77
T0909TS102_1  1774.90
T0909TS114_1  1725.23
T0909TS119_1  1790.29
T0909TS126_1  1177.59
T0909TS145_1  1103.83
T0909TS162_1  1022.94
T0909TS166_1  1622.88
T0909TS171_1  1115.15
T0909TS173_1  1779.50
T0909TS179_1  1732.82
T0909TS180_1  1153.32
T0909TS182_1  1190.85
T0909TS183_1  1832.89
T0909TS188_1  1087.64
T0909TS192_1  1035.01
T0909TS203_1  1774.90
T0909TS207_1  1707.71
T0909TS213_1  1235.15
T0909TS218_1  1683.33
T0909TS220_1  1774.90
T0909TS230_1  1246.41
T0909TS232_1  1704.86
T0909TS236_1  1649.17
T0909TS239_1  1815.23
T0909TS243_1  1781.95
T0909TS247_1  1725.71
T0909TS250_1  1718.70
T0909TS251_1  1704.22
T0909TS252_1  1696.60
T0909TS258_1  1598.96
T0909TS264_1  1110.10
T0909TS270_1  1235.15
T0909TS275_1  1495.83
T0909TS287_1  1407.98
T0909TS302_1  1235.15
T0909TS303_1  1801.05
T0909TS313_1  1798.86
T0909TS320_1  1799.94
T0909TS321_1  1035.46
T0909TS324_1  1760.69
T0909TS325_1  1715.45
T0909TS342_1  1795.16
T0909TS345_1  1722.70
T0909TS349_1  1800.41
T0909TS356_1  1219.44
T0909TS357_1  1646.75
T0909TS359_1  1264.03
T0909TS363_1  1725.23
T0909TS367_1  1075.59
T0909TS380_1  1238.94
T0909TS382_1  1549.58
T0909TS384_1  1784.94
T0909TS393_1  1809.43
T0909TS396_1  1834.08
T0909TS399_1  1097.72
T0909TS405_1  1743.29
T0909TS407_1  1150.77
T0909TS411_1  1743.76
T0909TS417_1  1774.90
T0909TS420_1  1798.79
T0909TS421_1  1615.51
T0909TS425_1  1728.44
T0909TS432_1  1307.09
T0909TS434_1  1130.45
T0909TS439_1  1804.32
T0909TS441_1  1738.70
T0909TS443_1  1700.84
T0909TS444_1  1614.32
T0909TS446_1  1004.35
T0909TS450_1  1775.43
T0909TS451_1  1012.50
T0909TS452_1  1680.53
T0909TS455_1  1101.85
T0909TS456_1  1702.53
T0909TS464_1  1735.00
T0909TS467_1  1376.25
T0909TS474_1  1596.96
T0909TS475_1  1705.47
T0909TS479_1  1824.85
T0909TS480_1  1572.69
T0909TS483_1  1609.28
T0909TS486_1  1832.89
T0909TS489_1  1124.98
T0909TS495_1  1650.89
T0909TS498_1  1829.23
