Model         2Djury
T0902TS005_1  1734.97
T0902TS016_1  1717.69
T0902TS026_1  1717.33
T0902TS028_1  965.69
T0902TS048_1  1667.62
T0902TS077_1  1688.51
T0902TS092_1  1667.62
T0902TS119_1  1686.31
T0902TS166_1  1612.82
T0902TS180_1  1564.36
T0902TS183_1  1747.08
T0902TS220_1  1675.90
T0902TS236_1  1740.69
T0902TS250_1  1722.31
T0902TS251_1  1688.08
T0902TS258_1  1752.90
T0902TS275_1  1599.95
T0902TS287_1  1737.46
T0902TS313_1  1673.08
T0902TS345_1  1737.33
T0902TS349_1  1686.08
T0902TS357_1  1643.69
T0902TS359_1  1454.49
T0902TS380_1  1717.33
T0902TS382_1  1582.92
T0902TS405_1  1683.10
T0902TS407_1  1676.05
T0902TS421_1  1602.64
T0902TS425_1  1693.21
T0902TS432_1  1284.72
T0902TS434_1  1196.44
T0902TS444_1  1611.77
T0902TS446_1  1399.79
T0902TS451_1  1320.64
T0902TS452_1  1709.87
T0902TS455_1  1025.28
T0902TS464_1  1606.67
T0902TS467_1  1584.36
T0902TS479_1  1746.36
