Model         2Djury
T0943TS005_1  3126.28
T0943TS016_1  3126.75
T0943TS026_1  3121.95
T0943TS028_1  1791.42
T0943TS048_1  3232.82
T0943TS077_1  3029.32
T0943TS092_1  3232.82
T0943TS119_1  3040.93
T0943TS166_1  2912.40
T0943TS180_1  1896.22
T0943TS183_1  3198.68
T0943TS220_1  3115.72
T0943TS236_1  3181.03
T0943TS250_1  3033.25
T0943TS251_1  2997.75
T0943TS258_1  2153.78
T0943TS275_1  3126.15
T0943TS287_1  3162.35
T0943TS313_1  2966.90
T0943TS321_1  2056.78
T0943TS345_1  2776.38
T0943TS349_1  3061.15
T0943TS357_1  2930.55
T0943TS359_1  1800.62
T0943TS380_1  3121.95
T0943TS382_1  2984.75
T0943TS405_1  3141.28
T0943TS407_1  3030.43
T0943TS421_1  3087.70
T0943TS425_1  3044.57
T0943TS432_1  2104.30
T0943TS434_1  1982.50
T0943TS444_1  2806.25
T0943TS446_1  2934.18
T0943TS451_1  2526.10
T0943TS452_1  3001.47
T0943TS455_1  2004.80
T0943TS464_1  3176.93
T0943TS467_1  2202.82
T0943TS479_1  3170.72
