        Model GDT_TS LDDT CAD_AA X2Djury
 T0876TS001_1  27.50 0.26   0.40  493.72
 T0876TS004_1  49.17 0.42   0.50  663.72
 T0876TS005_1  26.67 0.31   0.49  572.01
 T0876TS011_1  49.17 0.45   0.55  659.03
 T0876TS016_1  43.75 0.29   0.47  641.68
 T0876TS017_1  49.38 0.44   0.53  653.11
 T0876TS019_1  15.83 0.18   0.36  482.49
 T0876TS022_1  15.42 0.08   0.35  526.04
 T0876TS023_1  47.71 0.44   0.52  651.29
 T0876TS026_1  16.46 0.19   0.39  534.88
 T0876TS028_1  21.25 0.24   0.38  500.52
 T0876TS040_1  16.46 0.20   0.38  470.87
 T0876TS042_1  46.67 0.42   0.50  668.60
 T0876TS046_1  14.17 0.05   0.37  439.39
 T0876TS048_1  21.46 0.24   0.39  534.79
 T0876TS060_1  26.46 0.27   0.44  574.66
 T0876TS064_1  51.46 0.43   0.53  668.34
 T0876TS066_1  38.33 0.37   0.47  643.71
 T0876TS067_1  62.08 0.55   0.63  692.44
 T0876TS073_1  40.00 0.40   0.50  658.11
 T0876TS077_1  48.12 0.41   0.47  561.02
 T0876TS079_1  62.08 0.55   0.63  692.44
 T0876TS083_1  26.46 0.30   0.46  574.39
 T0876TS089_1  48.12 0.42   0.50  673.28
 T0876TS092_1  15.00 0.21   0.40  525.33
 T0876TS095_1  62.08 0.55   0.62  692.39
 T0876TS101_1  17.08 0.18   0.35  451.25
 T0876TS102_1  51.88 0.46   0.56  638.75
 T0876TS114_1  62.08 0.55   0.63  692.44
 T0876TS119_1  46.46 0.40   0.46  612.37
 T0876TS126_1  20.21 0.28   0.45  578.62
 T0876TS145_1  22.71 0.17   0.41  560.10
 T0876TS162_1  20.42 0.25   0.42  547.06
 T0876TS166_1  25.62 0.23   0.31  340.73
 T0876TS171_1  14.38 0.20   0.36  471.54
 T0876TS173_1  22.08 0.20   0.45  560.57
 T0876TS179_1  52.92 0.41   0.50  656.37
 T0876TS180_1  21.25 0.19   0.42  552.26
 T0876TS182_1  25.42 0.22   0.40  576.99
 T0876TS183_1  48.54 0.42   0.49  685.51
 T0876TS188_1  17.92 0.23   0.39  535.14
 T0876TS192_1  17.08 0.23   0.40  453.88
 T0876TS203_1  62.08 0.55   0.63  692.44
 T0876TS207_1  16.04 0.21   0.37  510.12
 T0876TS213_1  62.08 0.55   0.62  692.39
 T0876TS220_1  48.54 0.44   0.53  640.09
 T0876TS232_1  18.75 0.22   0.38  507.11
 T0876TS236_1  51.04 0.42   0.51  652.50
 T0876TS239_1  62.08 0.53   0.60  684.74
 T0876TS243_1  59.38 0.53   0.61  668.99
 T0876TS247_1  61.88 0.54   0.60  659.83
 T0876TS250_1  53.54 0.46   0.55  660.53
 T0876TS251_1  49.79 0.44   0.54  593.36
 T0876TS252_1  32.50 0.33   0.51  576.24
 T0876TS258_1  20.83 0.27   0.41  568.82
 T0876TS270_1  25.42 0.29   0.46  586.37
 T0876TS275_1  15.21 0.20   0.39  523.42
 T0876TS282_1  22.29 0.28   0.46  576.54
 T0876TS287_1  51.04 0.42   0.51  652.50
 T0876TS302_1  62.08 0.55   0.62  692.39
 T0876TS303_1  58.54 0.53   0.60  683.23
 T0876TS313_1  45.21 0.40   0.48  611.54
 T0876TS320_1  48.54 0.42   0.49  685.51
 T0876TS321_1  16.88 0.18   0.39  508.81
 T0876TS322_1  18.12 0.25   0.43  551.52
 T0876TS324_1  62.29 0.54   0.62  696.96
 T0876TS325_1  55.83 0.50   0.58  635.89
 T0876TS330_1  60.21 0.52   0.62  650.42
 T0876TS342_1  40.42 0.31   0.45  528.06
 T0876TS345_1  33.96 0.25   0.43  580.35
 T0876TS349_1  46.46 0.32   0.47  618.06
 T0876TS357_1  41.67 0.37   0.46  551.32
 T0876TS359_1  20.21 0.23   0.38  475.97
 T0876TS363_1  62.08 0.55   0.63  692.44
 T0876TS380_1  16.46 0.19   0.39  534.88
 T0876TS382_1  42.50 0.34   0.48  575.80
 T0876TS384_1  62.29 0.55   0.63  687.99
 T0876TS393_1  62.29 0.54   0.62  697.60
 T0876TS396_1  47.29 0.42   0.50  669.44
 T0876TS399_1  17.08 0.16   0.38  500.39
 T0876TS405_1  40.62 0.34   0.46  651.06
 T0876TS407_1  17.50 0.20   0.38  494.36
 T0876TS411_1  54.58 0.46   0.52  662.25
 T0876TS417_1  62.08 0.55   0.63  692.44
 T0876TS420_1  29.17 0.32   0.48  583.74
 T0876TS421_1  16.04 0.08   0.34  477.63
 T0876TS425_1  48.12 0.41   0.47  561.02
 T0876TS432_1  18.33 0.28   0.45  581.06
 T0876TS434_1  16.46 0.21   0.40  522.82
 T0876TS439_1  48.12 0.43   0.50  681.11
 T0876TS441_1  25.00 0.22   0.45  588.32
 T0876TS443_1  21.46 0.22   0.43  543.41
 T0876TS444_1  38.75 0.37   0.46  660.93
 T0876TS446_1  16.67 0.21   0.38  470.79
 T0876TS450_1  47.92 0.43   0.53  656.45
 T0876TS451_1  20.83 0.24   0.41  531.73
 T0876TS452_1  16.25 0.21   0.40  560.35
 T0876TS455_1  16.25 0.21   0.34  438.08
 T0876TS456_1  29.58 0.31   0.47  559.42
 T0876TS464_1  43.33 0.36   0.44  614.30
 T0876TS467_1  14.79 0.21   0.39  517.85
 T0876TS474_1  49.79 0.40   0.50  613.57
 T0876TS475_1  28.33 0.29   0.47  565.30
 T0876TS479_1  47.29 0.42   0.50  673.60
 T0876TS480_1  47.92 0.41   0.49  624.69
 T0876TS483_1  18.12 0.25   0.40  512.26
 T0876TS486_1  48.54 0.42   0.49  685.51
 T0876TS489_1  18.96 0.16   0.41  555.16
 T0876TS498_1  51.88 0.46   0.56  637.79
