          Model GDT_TS LDDT CAD_AA X2Djury
   T0892TS001_1  11.40 0.20   0.38  695.50
   T0892TS004_1  29.53 0.41   0.52  945.50
   T0892TS005_1  32.12 0.36   0.52  897.17
   T0892TS011_1  42.62 0.45   0.56  883.76
   T0892TS016_1  15.41 0.25   0.42  732.40
   T0892TS017_1  38.34 0.39   0.54  858.21
   T0892TS019_1  12.18 0.20   0.45  771.35
   T0892TS022_1  10.49 0.07   0.36  743.74
   T0892TS023_1  27.72 0.36   0.49  848.88
   T0892TS026_1  14.38 0.24   0.44  785.48
   T0892TS028_1  10.88 0.14   0.28  501.74
   T0892TS040_1  16.06 0.25   0.44  752.45
   T0892TS046_1  11.66 0.06   0.39  630.30
   T0892TS048_1  34.46 0.38   0.52  901.55
   T0892TS060_1  33.03 0.39   0.54  890.73
 T0892TS064_1_1  23.32 0.23   0.35  635.02
   T0892TS066_1  12.82 0.25   0.42  773.59
   T0892TS067_1  30.18 0.42   0.52  953.83
   T0892TS073_1  36.79 0.40   0.54  880.74
   T0892TS077_1  13.60 0.24   0.43  725.29
   T0892TS079_1  10.88 0.14   0.28  501.74
   T0892TS089_1  12.82 0.25   0.42  773.59
   T0892TS092_1  34.46 0.38   0.52  901.55
   T0892TS095_1  12.82 0.25   0.42  773.59
   T0892TS101_1  15.41 0.22   0.43  745.55
   T0892TS102_1  30.31 0.33   0.51  853.96
   T0892TS114_1  32.12 0.36   0.52  897.17
   T0892TS119_1  21.24 0.16   0.36  530.74
 T0892TS126_1_1  23.06 0.24   0.36  665.77
 T0892TS126_2_1  24.22 0.24   0.37  670.58
 T0892TS126_3_1  25.78 0.24   0.36  668.44
 T0892TS126_4_1  29.92 0.26   0.38  669.72
 T0892TS126_5_1  27.59 0.24   0.37  663.17
   T0892TS162_1  15.80 0.29   0.45  769.98
   T0892TS166_1  17.36 0.07   0.10  152.07
   T0892TS171_1  12.31 0.23   0.38  692.25
 T0892TS173_1_1  25.26 0.15   0.36  686.12
 T0892TS173_2_1  25.91 0.16   0.38  690.44
 T0892TS173_3_1  19.82 0.14   0.36  652.85
 T0892TS173_4_1  25.52 0.16   0.36  682.63
 T0892TS173_5_1  24.61 0.15   0.37  670.67
   T0892TS179_1  30.44 0.38   0.54  931.36
   T0892TS180_1  17.49 0.21   0.44  733.74
   T0892TS182_1  21.50 0.30   0.43  778.88
   T0892TS183_1  31.86 0.38   0.50  901.42
   T0892TS188_1  14.64 0.23   0.41  742.87
   T0892TS192_1  11.27 0.21   0.39  690.25
   T0892TS203_1  23.19 0.36   0.51  851.83
   T0892TS207_1  31.09 0.32   0.49  830.40
   T0892TS213_1  12.82 0.25   0.42  773.59
   T0892TS220_1  27.59 0.36   0.51  832.01
   T0892TS230_1  12.56 0.22   0.39  710.21
   T0892TS232_1  10.62 0.20   0.39  667.64
   T0892TS236_1  31.22 0.32   0.46  834.53
   T0892TS239_1  29.92 0.38   0.53  930.35
   T0892TS243_1  24.35 0.36   0.52  869.02
   T0892TS247_1  27.46 0.38   0.49  849.93
   T0892TS250_1  27.46 0.34   0.50  850.98
   T0892TS251_1  15.93 0.25   0.45  768.02
   T0892TS252_1  33.55 0.37   0.52  884.02
   T0892TS258_1  15.15 0.26   0.44  810.27
   T0892TS264_1  14.51 0.23   0.43  734.93
   T0892TS270_1  12.82 0.25   0.42  773.59
   T0892TS275_1  18.91 0.17   0.36  555.14
   T0892TS287_1  32.25 0.35   0.50  844.31
   T0892TS300_1  17.10 0.27   0.42  749.02
   T0892TS302_1  12.82 0.25   0.42  773.59
   T0892TS303_1  23.32 0.36   0.51  855.21
   T0892TS313_1  20.98 0.17   0.38  533.46
   T0892TS320_1  31.48 0.39   0.50  933.61
   T0892TS321_1  16.71 0.25   0.46  743.12
   T0892TS324_1  30.05 0.42   0.53  961.85
 T0892TS325_1_1  27.07 0.24   0.37  685.41
 T0892TS325_2_1  27.07 0.25   0.37  682.23
 T0892TS325_3_1  27.20 0.24   0.37  680.10
 T0892TS325_4_1  30.83 0.26   0.38  672.30
 T0892TS325_5_1  30.44 0.26   0.38  681.65
   T0892TS342_1  34.46 0.38   0.52  901.55
   T0892TS345_1  30.31 0.33   0.51  853.96
   T0892TS349_1  21.24 0.16   0.37  522.40
   T0892TS357_1  14.90 0.14   0.31  473.68
   T0892TS359_1  11.53 0.10   0.18  264.72
   T0892TS363_1  32.12 0.36   0.52  897.17
   T0892TS380_1  14.38 0.24   0.44  785.48
   T0892TS382_1  20.86 0.27   0.42  834.02
   T0892TS384_1  23.57 0.36   0.51  867.07
   T0892TS393_1  23.45 0.36   0.51  872.50
   T0892TS396_1  30.31 0.41   0.52  942.20
   T0892TS399_1  13.47 0.17   0.42  734.95
   T0892TS405_1  34.84 0.33   0.48  858.38
   T0892TS407_1  22.67 0.30   0.47  803.82
   T0892TS411_1  34.20 0.41   0.53  883.65
   T0892TS417_1  32.12 0.36   0.52  897.17
   T0892TS420_1  17.75 0.26   0.45  804.90
   T0892TS421_1  15.29 0.09   0.38  787.17
   T0892TS425_1  13.34 0.23   0.41  706.02
   T0892TS432_1  28.11 0.35   0.50  864.31
   T0892TS434_1  17.75 0.26   0.45  804.90
   T0892TS439_1  29.53 0.35   0.52  921.82
 T0892TS441_1_1  22.02 0.15   0.36  650.15
 T0892TS441_2_1  25.26 0.15   0.36  686.12
 T0892TS441_3_1  24.74 0.15   0.36  690.92
 T0892TS441_4_1  24.74 0.15   0.36  690.92
 T0892TS441_5_1  18.00 0.13   0.34  630.20
   T0892TS443_1  28.89 0.35   0.51  854.19
   T0892TS444_1  14.38 0.28   0.46  807.47
   T0892TS446_1  13.34 0.24   0.45  776.73
   T0892TS450_1  34.20 0.41   0.54  890.15
   T0892TS451_1  34.20 0.37   0.49  786.93
   T0892TS452_1  14.51 0.25   0.42  764.36
   T0892TS455_1  10.75 0.20   0.37  688.31
   T0892TS456_1  19.95 0.32   0.49  838.61
   T0892TS464_1  14.77 0.25   0.44  751.98
   T0892TS467_1  16.06 0.24   0.43  756.38
   T0892TS474_1  23.45 0.32   0.49  837.46
   T0892TS479_1  30.18 0.42   0.52  953.83
   T0892TS480_1  11.92 0.21   0.38  697.42
   T0892TS483_1  15.80 0.24   0.43  755.36
   T0892TS486_1  34.72 0.27   0.52  933.56
   T0892TS489_1  18.78 0.15   0.42  804.31
   T0892TS498_1  28.50 0.34   0.50  880.64
