Koreliacijos koeficientai:

2Djury vs GDT_TS
pearson 0.976068528892886
spearman 0.604230839515831 

2Djury vs LDDT
pearson 0.960485445754395
spearman 0.777648999122157 

2Djury vs CAD_AA
pearson 0.934161066679685
spearman 0.749687903360056 

