Koreliacijos koeficientai:

2Djury vs GDT_TS
pearson 0.765174218076806
spearman 0.801753961321944 

2Djury vs LDDT
pearson 0.825561559675401
spearman 0.851779330606859 

2Djury vs CAD_AA
pearson 0.886409759287078
spearman 0.885145553450845 

