Koreliacijos koeficientai:

2Djury vs GDT_TS
pearson 0.856795434590389
spearman 0.605592952255826 

2Djury vs LDDT
pearson 0.832771417333335
spearman 0.69611519184116 

2Djury vs CAD_AA
pearson 0.844482785068724
spearman 0.70632399294709 

